p8105\_hw3\_at3346
================
Ashley Tseng
10/14/2019

## Problem 1

Load data:

``` r
data("instacart") 
force(instacart)
```

    ## # A tibble: 1,384,617 x 15
    ##    order_id product_id add_to_cart_ord… reordered user_id eval_set
    ##       <int>      <int>            <int>     <int>   <int> <chr>   
    ##  1        1      49302                1         1  112108 train   
    ##  2        1      11109                2         1  112108 train   
    ##  3        1      10246                3         0  112108 train   
    ##  4        1      49683                4         0  112108 train   
    ##  5        1      43633                5         1  112108 train   
    ##  6        1      13176                6         0  112108 train   
    ##  7        1      47209                7         0  112108 train   
    ##  8        1      22035                8         1  112108 train   
    ##  9       36      39612                1         0   79431 train   
    ## 10       36      19660                2         1   79431 train   
    ## # … with 1,384,607 more rows, and 9 more variables: order_number <int>,
    ## #   order_dow <int>, order_hour_of_day <int>,
    ## #   days_since_prior_order <int>, product_name <chr>, aisle_id <int>,
    ## #   department_id <int>, aisle <chr>, department <chr>
…
NOT DONE: :( convert from decimal times to real times with splitting,
converting, then concactenate

## Problem 2

Data cleaning:

``` r
data("brfss_smart2010") 
force(brfss_smart2010)
```

    ## # A tibble: 134,203 x 23
    ##     Year Locationabbr Locationdesc Class Topic Question Response
    ##    <int> <chr>        <chr>        <chr> <chr> <chr>    <chr>   
    ##  1  2010 AL           AL - Jeffer… Heal… Over… How is … Excelle…
    ##  2  2010 AL           AL - Jeffer… Heal… Over… How is … Very go…
    ##  3  2010 AL           AL - Jeffer… Heal… Over… How is … Good    
    ##  4  2010 AL           AL - Jeffer… Heal… Over… How is … Fair    
    ##  5  2010 AL           AL - Jeffer… Heal… Over… How is … Poor    
    ##  6  2010 AL           AL - Jeffer… Heal… Fair… Health … Good or…
    ##  7  2010 AL           AL - Jeffer… Heal… Fair… Health … Fair or…
    ##  8  2010 AL           AL - Jeffer… Heal… Heal… Do you … Yes     
    ##  9  2010 AL           AL - Jeffer… Heal… Heal… Do you … No      
    ## 10  2010 AL           AL - Jeffer… Heal… Unde… Adults … Yes     
    ## # … with 134,193 more rows, and 16 more variables: Sample_Size <int>,
    ## #   Data_value <dbl>, Confidence_limit_Low <dbl>,
    ## #   Confidence_limit_High <dbl>, Display_order <int>,
    ## #   Data_value_unit <chr>, Data_value_type <chr>,
    ## #   Data_Value_Footnote_Symbol <chr>, Data_Value_Footnote <chr>,
    ## #   DataSource <chr>, ClassId <chr>, TopicId <chr>, LocationID <chr>,
    ## #   QuestionID <chr>, RESPID <chr>, GeoLocation <chr>
…
